// 20211203120343
// http://localhost:8600/api/timedatas

{
  "_embedded": {
    "timedatas": [
      {
        "id": 1,
        "hour": 8,
        "type": "Я",
        "date": "2020-09-01",
        "_links": {
          "self": {
            "href": "http://localhost:8600/api/timedatas/1"
          },
          "timedata": {
            "href": "http://localhost:8600/api/timedatas/1"
          },
          "user": {
            "href": "http://localhost:8600/api/timedatas/1/user"
          }
        }
      },
      {
        "id": 2,
        "hour": 8,
        "type": "Я",
        "date": "2020-09-02",
        "_links": {
          "self": {
            "href": "http://localhost:8600/api/timedatas/2"
          },
          "timedata": {
            "href": "http://localhost:8600/api/timedatas/2"
          },
          "user": {
            "href": "http://localhost:8600/api/timedatas/2/user"
          }
        }
      },
      {
        "id": 3,
        "hour": 8,
        "type": "Я",
        "date": "2020-09-03",
        "_links": {
          "self": {
            "href": "http://localhost:8600/api/timedatas/3"
          },
          "timedata": {
            "href": "http://localhost:8600/api/timedatas/3"
          },
          "user": {
            "href": "http://localhost:8600/api/timedatas/3/user"
          }
        }
      },
      {
        "id": 4,
        "hour": 8,
        "type": "Я",
        "date": "2020-09-04",
        "_links": {
          "self": {
            "href": "http://localhost:8600/api/timedatas/4"
          },
          "timedata": {
            "href": "http://localhost:8600/api/timedatas/4"
          },
          "user": {
            "href": "http://localhost:8600/api/timedatas/4/user"
          }
        }
      },
      {
        "id": 5,
        "hour": 0,
        "type": "в",
        "date": "2020-09-05",
        "_links": {
          "self": {
            "href": "http://localhost:8600/api/timedatas/5"
          },
          "timedata": {
            "href": "http://localhost:8600/api/timedatas/5"
          },
          "user": {
            "href": "http://localhost:8600/api/timedatas/5/user"
          }
        }
      },
      {
        "id": 6,
        "hour": 0,
        "type": "в",
        "date": "2020-09-06",
        "_links": {
          "self": {
            "href": "http://localhost:8600/api/timedatas/6"
          },
          "timedata": {
            "href": "http://localhost:8600/api/timedatas/6"
          },
          "user": {
            "href": "http://localhost:8600/api/timedatas/6/user"
          }
        }
      },
      {
        "id": 7,
        "hour": 8,
        "type": "Я",
        "date": "2020-09-07",
        "_links": {
          "self": {
            "href": "http://localhost:8600/api/timedatas/7"
          },
          "timedata": {
            "href": "http://localhost:8600/api/timedatas/7"
          },
          "user": {
            "href": "http://localhost:8600/api/timedatas/7/user"
          }
        }
      },
      {
        "id": 8,
        "hour": 8,
        "type": "Я",
        "date": "2020-09-08",
        "_links": {
          "self": {
            "href": "http://localhost:8600/api/timedatas/8"
          },
          "timedata": {
            "href": "http://localhost:8600/api/timedatas/8"
          },
          "user": {
            "href": "http://localhost:8600/api/timedatas/8/user"
          }
        }
      },
      {
        "id": 9,
        "hour": 8,
        "type": "Я",
        "date": "2020-09-09",
        "_links": {
          "self": {
            "href": "http://localhost:8600/api/timedatas/9"
          },
          "timedata": {
            "href": "http://localhost:8600/api/timedatas/9"
          },
          "user": {
            "href": "http://localhost:8600/api/timedatas/9/user"
          }
        }
      },
      {
        "id": 10,
        "hour": 8,
        "type": "Я",
        "date": "2020-09-10",
        "_links": {
          "self": {
            "href": "http://localhost:8600/api/timedatas/10"
          },
          "timedata": {
            "href": "http://localhost:8600/api/timedatas/10"
          },
          "user": {
            "href": "http://localhost:8600/api/timedatas/10/user"
          }
        }
      },
      {
        "id": 11,
        "hour": 8,
        "type": "Я",
        "date": "2020-09-11",
        "_links": {
          "self": {
            "href": "http://localhost:8600/api/timedatas/11"
          },
          "timedata": {
            "href": "http://localhost:8600/api/timedatas/11"
          },
          "user": {
            "href": "http://localhost:8600/api/timedatas/11/user"
          }
        }
      },
      {
        "id": 12,
        "hour": 0,
        "type": "в",
        "date": "2020-09-12",
        "_links": {
          "self": {
            "href": "http://localhost:8600/api/timedatas/12"
          },
          "timedata": {
            "href": "http://localhost:8600/api/timedatas/12"
          },
          "user": {
            "href": "http://localhost:8600/api/timedatas/12/user"
          }
        }
      },
      {
        "id": 13,
        "hour": 0,
        "type": "в",
        "date": "2020-09-13",
        "_links": {
          "self": {
            "href": "http://localhost:8600/api/timedatas/13"
          },
          "timedata": {
            "href": "http://localhost:8600/api/timedatas/13"
          },
          "user": {
            "href": "http://localhost:8600/api/timedatas/13/user"
          }
        }
      },
      {
        "id": 14,
        "hour": 8,
        "type": "Я",
        "date": "2020-09-14",
        "_links": {
          "self": {
            "href": "http://localhost:8600/api/timedatas/14"
          },
          "timedata": {
            "href": "http://localhost:8600/api/timedatas/14"
          },
          "user": {
            "href": "http://localhost:8600/api/timedatas/14/user"
          }
        }
      },
      {
        "id": 15,
        "hour": 8,
        "type": "Я",
        "date": "2020-09-15",
        "_links": {
          "self": {
            "href": "http://localhost:8600/api/timedatas/15"
          },
          "timedata": {
            "href": "http://localhost:8600/api/timedatas/15"
          },
          "user": {
            "href": "http://localhost:8600/api/timedatas/15/user"
          }
        }
      },
      {
        "id": 16,
        "hour": 8,
        "type": "А",
        "date": "2020-09-16",
        "_links": {
          "self": {
            "href": "http://localhost:8600/api/timedatas/16"
          },
          "timedata": {
            "href": "http://localhost:8600/api/timedatas/16"
          },
          "user": {
            "href": "http://localhost:8600/api/timedatas/16/user"
          }
        }
      },
      {
        "id": 17,
        "hour": 8,
        "type": "Я",
        "date": "2020-09-17",
        "_links": {
          "self": {
            "href": "http://localhost:8600/api/timedatas/17"
          },
          "timedata": {
            "href": "http://localhost:8600/api/timedatas/17"
          },
          "user": {
            "href": "http://localhost:8600/api/timedatas/17/user"
          }
        }
      },
      {
        "id": 18,
        "hour": 8,
        "type": "Я",
        "date": "2020-09-18",
        "_links": {
          "self": {
            "href": "http://localhost:8600/api/timedatas/18"
          },
          "timedata": {
            "href": "http://localhost:8600/api/timedatas/18"
          },
          "user": {
            "href": "http://localhost:8600/api/timedatas/18/user"
          }
        }
      },
      {
        "id": 19,
        "hour": 0,
        "type": "в",
        "date": "2020-09-19",
        "_links": {
          "self": {
            "href": "http://localhost:8600/api/timedatas/19"
          },
          "timedata": {
            "href": "http://localhost:8600/api/timedatas/19"
          },
          "user": {
            "href": "http://localhost:8600/api/timedatas/19/user"
          }
        }
      },
      {
        "id": 20,
        "hour": 0,
        "type": "в",
        "date": "2020-09-20",
        "_links": {
          "self": {
            "href": "http://localhost:8600/api/timedatas/20"
          },
          "timedata": {
            "href": "http://localhost:8600/api/timedatas/20"
          },
          "user": {
            "href": "http://localhost:8600/api/timedatas/20/user"
          }
        }
      }
    ]
  },
  "_links": {
    "first": {
      "href": "http://localhost:8600/api/timedatas?page=0&size=20"
    },
    "self": {
      "href": "http://localhost:8600/api/timedatas"
    },
    "next": {
      "href": "http://localhost:8600/api/timedatas?page=1&size=20"
    },
    "last": {
      "href": "http://localhost:8600/api/timedatas?page=42&size=20"
    },
    "profile": {
      "href": "http://localhost:8600/api/profile/timedatas"
    },
    "search": {
      "href": "http://localhost:8600/api/timedatas/search"
    }
  },
  "page": {
    "size": 20,
    "totalElements": 854,
    "totalPages": 43,
    "number": 0
  }
}
